From;To;Type;Through;start_x;start_y;stop_x;stop_y;Comment
2;276;sea;1272;2848;1531;2854;1527;Eargate-Damescross
168;11;sea;1271;2803;1532;-1;-1;Auraire-Damesteeth
11;13;sea;1271;-1;-1;-1;-1;Damesteeth-Toothsend
39;379;sea;1296;2951;1377;2954;1373;
379;36;sea;1302;2957;1361;2958;1358;
36;35;sea;1302;2947;1356;2943;1359;
375;376;sea;1280;-1;-1;-1;-1;
46;14;sea;1293;-1;-1;-1;-1;
14;51;sea;1293;-1;-1;-1;-1;
146;145;sea;1299;-1;-1;-1;-1;
171;146;sea;1299;-1;-1;-1;-1;
197;198;sea;1321;2781;1799;2773;1803;
197;199;sea;1320;-1;-1;-1;-1;
451;445;sea;1303;-1;-1;-1;-1;Nathalaire
451;447;sea;1303;-1;-1;-1;-1;Nathalaire
495;494;sea;1308;-1;-1;-1;-1;Elizna
526;528;sea;1312;-1;-1;-1;-1;
581;523;sea;1313;-1;-1;-1;-1;Yametses
926;927;sea;1674;-1;-1;-1;-1;
927;925;sea;1674;-1;-1;-1;-1;
1078;1077;sea;1675;-1;-1;-1;-1;
1081;1080;sea;1533;-1;-1;-1;-1;
1080;1079;sea;1533;-1;-1;-1;-1;
1085;1086;sea;1532;-1;-1;-1;-1;
1086;1087;sea;1532;-1;-1;-1;-1;
1087;1101;sea;1532;-1;-1;-1;-1;
1101;1103;sea;1532;-1;-1;-1;-1;
1103;1088;sea;1532;-1;-1;-1;-1;
1088;1089;sea;1514;-1;-1;-1;-1;
1089;1091;sea;1514;-1;-1;-1;-1;
1091;1090;sea;1514;-1;-1;-1;-1;
1091;1092;sea;1514;-1;-1;-1;-1;
1093;1096;sea;1531;-1;-1;-1;-1;
1095;1097;sea;1529;-1;-1;-1;-1;
1105;1106;sea;1670;-1;-1;-1;-1;
1052;1053;sea;1669;-1;-1;-1;-1;
1053;1054;sea;1528;-1;-1;-1;-1;
1035;1036;sea;4224;-1;-1;-1;-1;
1020;1051;sea;1519;-1;-1;-1;-1;
1063;1072;sea;1513;-1;-1;-1;-1;
1072;1073;sea;1513;-1;-1;-1;-1;
1061;1059;sea;1509;-1;-1;-1;-1;
1059;1062;sea;1509;-1;-1;-1;-1;
698;708;sea;1322;-1;-1;-1;-1;
708;952;sea;1322;-1;-1;-1;-1;
952;953;sea;1322;-1;-1;-1;-1;
708;953;sea;1322;-1;-1;-1;-1;
952;954;sea;1322;-1;-1;-1;-1;
953;997;sea;1322;-1;-1;-1;-1;
6265;999;sea;1436;-1;-1;-1;-1;
704;707;sea;1256;-1;-1;-1;-1;
707;713;sea;1256;-1;-1;-1;-1;
580;582;sea;1311;-1;-1;-1;-1;
4662;935;sea;1504;-1;-1;-1;-1;
935;4663;sea;1504;-1;-1;-1;-1;
1973;1987;sea;1695;-1;-1;-1;-1;
1751;2799;sea;1492;-1;-1;-1;-1;
1248;2801;sea;1492;-1;-1;-1;-1;
1246;1234;sea;1485;-1;-1;-1;-1;
1234;1245;sea;1485;-1;-1;-1;-1;
1234;1230;sea;1485;-1;-1;-1;-1;
1227;1244;sea;1493;-1;-1;-1;-1;
1227;1228;sea;1493;-1;-1;-1;-1;
1227;1232;sea;1493;-1;-1;-1;-1;
1228;1231;sea;1493;-1;-1;-1;-1;
1229;2789;sea;1495;-1;-1;-1;-1;
1222;2789;sea;1495;-1;-1;-1;-1;
2676;2747;sea;1713;-1;-1;-1;-1;
2673;2672;sea;1712;1146;167;1145;170;Soreion-Theion
2162;2172;sea;1688;-1;-1;-1;-1;Vanburia
2178;2180;sea;1438;-1;-1;-1;-1;Soruin
2186;2180;sea;1438;-1;-1;-1;-1;Soruin
2789;2790;sea;1495;-1;-1;-1;-1;
2790;2791;sea;1495;-1;-1;-1;-1;
2068;2155;sea;1559;-1;-1;-1;-1;
2155;2153;sea;1682;-1;-1;-1;-1;
2151;2152;sea;1560;-1;-1;-1;-1;
2166;2169;sea;1687;-1;-1;-1;-1;
2175;1306;sea;1537;-1;-1;-1;-1;Soruin
1942;1104;sea;1528;-1;-1;-1;-1;
1036;1952;sea;4224;-1;-1;-1;-1;
2599;2723;sea;1712;-1;-1;-1;-1;
2723;2600;sea;1712;-1;-1;-1;-1;
2600;2720;sea;1712;-1;-1;-1;-1;
2721;2720;sea;1712;-1;-1;-1;-1;
2721;2722;sea;1712;-1;-1;-1;-1;
2206;2231;sea;1511;-1;-1;-1;-1;
2233;2231;sea;1511;-1;-1;-1;-1;
2233;2227;sea;1580;-1;-1;-1;-1;
2233;2232;sea;1535;-1;-1;-1;-1;
2234;2232;sea;1535;-1;-1;-1;-1;
2222;2232;sea;1535;-1;-1;-1;-1;
2222;2229;sea;1536;-1;-1;-1;-1;
2228;2229;sea;1536;-1;-1;-1;-1;
2228;2213;sea;1530;-1;-1;-1;-1;
2221;2229;sea;1536;-1;-1;-1;-1;
2389;3205;sea;1657;-1;-1;-1;-1;
2393;3205;sea;1657;-1;-1;-1;-1;
2738;2739;sea;1709;-1;-1;-1;-1;
2772;2739;sea;1709;-1;-1;-1;-1;
6758;2513;sea;1544;-1;-1;-1;-1;
2736;2774;sea;1709;-1;-1;-1;-1;
2719;2774;sea;1741;-1;-1;-1;-1;
2719;2720;sea;1547;-1;-1;-1;-1;
2723;2720;sea;1712;-1;-1;-1;-1;
2513;2510;sea;1544;-1;-1;-1;-1;
2732;2734;sea;1548;-1;-1;-1;-1;
2733;2734;sea;1548;-1;-1;-1;-1;
987;736;sea;1286;-1;-1;-1;-1;Isle Vroren
735;736;sea;1286;-1;-1;-1;-1;Isle Vroren
1268;1258;canal;1775;-1;-1;-1;-1;kiel_canal
1548;1515;canal;835;-1;-1;-1;-1;panama_canal
1328;1316;canal;363;-1;-1;-1;-1;suez_canal
1441;6202;canal;5304;-1;-1;-1;-1;zabyostlar_canal
1679;1386;canal;5246;-1;-1;-1;-1;kozuurigur_canal
2933;4122;;-1;-1;-1;-1;-1;Dwarovar
2992;4128;;-1;-1;-1;-1;-1;Dwarovar
2981;4103;;-1;-1;-1;-1;-1;Dwarovar
2933;4122;;-1;-1;-1;-1;-1;Dwarovar
2884;2885;;-1;-1;-1;-1;-1;Dwarovar
4090;4242;;-1;-1;-1;-1;-1;Dwarovar
4302;4300;;-1;-1;-1;-1;-1;Dwarovar
3049;3050;;-1;-1;-1;-1;-1;Deepwoods_Teleporter
3049;3051;;-1;-1;-1;-1;-1;Deepwoods_Teleporter
3049;3052;;-1;-1;-1;-1;-1;Deepwoods_Teleporter
3049;3053;;-1;-1;-1;-1;-1;Deepwoods_Teleporter
3049;3057;;-1;-1;-1;-1;-1;Deepwoods_Teleporter
3049;3058;;-1;-1;-1;-1;-1;Deepwoods_Teleporter
3049;3063;;-1;-1;-1;-1;-1;Deepwoods_Teleporter
3049;3066;;-1;-1;-1;-1;-1;Deepwoods_Teleporter
3049;7027;;-1;-1;-1;-1;-1;Deepwoods_Teleporter
3049;7030;;-1;-1;-1;-1;-1;Deepwoods_Teleporter
3049;7033;;-1;-1;-1;-1;-1;Deepwoods_Teleporter
3050;3051;;-1;-1;-1;-1;-1;Deepwoods_Teleporter
3050;3052;;-1;-1;-1;-1;-1;Deepwoods_Teleporter
3050;3053;;-1;-1;-1;-1;-1;Deepwoods_Teleporter
3050;3057;;-1;-1;-1;-1;-1;Deepwoods_Teleporter
3050;3058;;-1;-1;-1;-1;-1;Deepwoods_Teleporter
3050;3063;;-1;-1;-1;-1;-1;Deepwoods_Teleporter
3050;3066;;-1;-1;-1;-1;-1;Deepwoods_Teleporter
3050;7027;;-1;-1;-1;-1;-1;Deepwoods_Teleporter
3050;7030;;-1;-1;-1;-1;-1;Deepwoods_Teleporter
3050;7033;;-1;-1;-1;-1;-1;Deepwoods_Teleporter
3051;3052;;-1;-1;-1;-1;-1;Deepwoods_Teleporter
3051;3053;;-1;-1;-1;-1;-1;Deepwoods_Teleporter
3051;3057;;-1;-1;-1;-1;-1;Deepwoods_Teleporter
3051;3058;;-1;-1;-1;-1;-1;Deepwoods_Teleporter
3051;3063;;-1;-1;-1;-1;-1;Deepwoods_Teleporter
3051;3066;;-1;-1;-1;-1;-1;Deepwoods_Teleporter
3051;7027;;-1;-1;-1;-1;-1;Deepwoods_Teleporter
3051;7030;;-1;-1;-1;-1;-1;Deepwoods_Teleporter
3051;7033;;-1;-1;-1;-1;-1;Deepwoods_Teleporter
3052;3053;;-1;-1;-1;-1;-1;Deepwoods_Teleporter
3052;3057;;-1;-1;-1;-1;-1;Deepwoods_Teleporter
3052;3058;;-1;-1;-1;-1;-1;Deepwoods_Teleporter
3052;3063;;-1;-1;-1;-1;-1;Deepwoods_Teleporter
3052;3066;;-1;-1;-1;-1;-1;Deepwoods_Teleporter
3052;7027;;-1;-1;-1;-1;-1;Deepwoods_Teleporter
3052;7030;;-1;-1;-1;-1;-1;Deepwoods_Teleporter
3052;7033;;-1;-1;-1;-1;-1;Deepwoods_Teleporter
3053;3057;;-1;-1;-1;-1;-1;Deepwoods_Teleporter
3053;3058;;-1;-1;-1;-1;-1;Deepwoods_Teleporter
3053;3063;;-1;-1;-1;-1;-1;Deepwoods_Teleporter
3053;3066;;-1;-1;-1;-1;-1;Deepwoods_Teleporter
3053;7027;;-1;-1;-1;-1;-1;Deepwoods_Teleporter
3053;7030;;-1;-1;-1;-1;-1;Deepwoods_Teleporter
3053;7033;;-1;-1;-1;-1;-1;Deepwoods_Teleporter
3057;3058;;-1;-1;-1;-1;-1;Deepwoods_Teleporter
3057;3063;;-1;-1;-1;-1;-1;Deepwoods_Teleporter
3057;3066;;-1;-1;-1;-1;-1;Deepwoods_Teleporter
3057;7027;;-1;-1;-1;-1;-1;Deepwoods_Teleporter
3057;7030;;-1;-1;-1;-1;-1;Deepwoods_Teleporter
3057;7033;;-1;-1;-1;-1;-1;Deepwoods_Teleporter
3058;3063;;-1;-1;-1;-1;-1;Deepwoods_Teleporter
3058;3066;;-1;-1;-1;-1;-1;Deepwoods_Teleporter
3058;7027;;-1;-1;-1;-1;-1;Deepwoods_Teleporter
3058;7030;;-1;-1;-1;-1;-1;Deepwoods_Teleporter
3058;7033;;-1;-1;-1;-1;-1;Deepwoods_Teleporter
3063;3066;;-1;-1;-1;-1;-1;Deepwoods_Teleporter
3063;7027;;-1;-1;-1;-1;-1;Deepwoods_Teleporter
3063;7030;;-1;-1;-1;-1;-1;Deepwoods_Teleporter
3063;7033;;-1;-1;-1;-1;-1;Deepwoods_Teleporter
3066;7027;;-1;-1;-1;-1;-1;Deepwoods_Teleporter
3066;7030;;-1;-1;-1;-1;-1;Deepwoods_Teleporter
3066;7033;;-1;-1;-1;-1;-1;Deepwoods_Teleporter
7030;7033;;-1;-1;-1;-1;-1;Deepwoods_Teleporter
3236;3237;sea;1464;-1;-1;-1;-1;Fahvanosy
3239;3237;sea;1464;-1;-1;-1;-1;Fahvanosy
3242;3243;sea;3082;-1;-1;-1;-1;Fahvanosy
5891;3244;sea;3087;-1;-1;-1;-1;Isagumze
3244;3245;sea;3087;-1;-1;-1;-1;Isagumze
4097;4065;canal;4097;-1;-1;-1;-1;Marrhold>Dwarovar
4065;4097;canal;4065;-1;-1;-1;-1;Dwarovar>Marrhold
4395;4551;sea;1361;-1;-1;-1;-1;Rahen
4398;4551;sea;1361;-1;-1;-1;-1;Rahen
4556;4551;sea;1361;-1;-1;-1;-1;Rahen
6031;6033;sea;1457;-1;-1;-1;-1;TressikCoast
6140;6151;sea;1644;-1;-1;-1;-1;HalessIsles
6140;6153;sea;1644;-1;-1;-1;-1;HalessIsles
6151;6153;sea;3127;-1;-1;-1;-1;HalessIsles
6145;6142;sea;3125;-1;-1;-1;-1;HalessIsles
6145;6146;sea;3128;-1;-1;-1;-1;HalessIsles
6136;6138;sea;3128;-1;-1;-1;-1;HalessIsles
6144;6138;sea;1622;-1;-1;-1;-1;HalessIsles
6139;6137;sea;1642;-1;-1;-1;-1;HalessIsles
2923;4400;sea;1348;-1;-1;-1;-1;RahenGulf
5434;5668;sea;3073;-1;-1;-1;-1;RahenGulf
4700;4701;sea;1364;-1;-1;-1;-1;RahenGulf
4699;4700;sea;1364;-1;-1;-1;-1;Haless
4836;4837;sea;1370;-1;-1;-1;-1;Haless
4752;4837;sea;1370;-1;-1;-1;-1;Haless
6158;6159;sea;1417;-1;-1;-1;-1;Insyaa
6158;6169;sea;1408;-1;-1;-1;-1;Insyaa
6170;6169;sea;1408;-1;-1;-1;-1;Insyaa
6178;6164;sea;1408;-1;-1;-1;-1;Insyaa
6166;6164;sea;1408;-1;-1;-1;-1;Insyaa
6177;6166;sea;1408;-1;-1;-1;-1;Insyaa
6160;6162;sea;1408;-1;-1;-1;-1;Insyaa
6176;6181;sea;1408;-1;-1;-1;-1;Insyaa
6181;6184;sea;1408;-1;-1;-1;-1;Insyaa
6183;6189;sea;1408;-1;-1;-1;-1;Insyaa
6193;6189;sea;1410;-1;-1;-1;-1;Insyaa
6193;6180;sea;1410;-1;-1;-1;-1;Insyaa
6163;6180;sea;1635;-1;-1;-1;-1;Insyaa
6194;6226;sea;1410;-1;-1;-1;-1;Insyaa
6226;6195;sea;1410;-1;-1;-1;-1;Insyaa
6197;6195;sea;1410;-1;-1;-1;-1;Insyaa
6197;6212;sea;1410;-1;-1;-1;-1;Insyaa
6186;6204;sea;1410;-1;-1;-1;-1;Insyaa
6205;6199;sea;1410;-1;-1;-1;-1;Insyaa
6197;6212;sea;1410;-1;-1;-1;-1;Insyaa
6199;6190;sea;1399;-1;-1;-1;-1;Insyaa
6215;6218;sea;1410;-1;-1;-1;-1;Insyaa
6228;6218;sea;1410;-1;-1;-1;-1;Insyaa
6210;6216;sea;1410;-1;-1;-1;-1;Insyaa
6216;6221;sea;1410;-1;-1;-1;-1;Insyaa
6219;6221;sea;1410;-1;-1;-1;-1;Insyaa
6229;6230;sea;1407;-1;-1;-1;-1;Insyaa
6231;6232;sea;1407;-1;-1;-1;-1;Insyaa
5123;5302;sea;1381;-1;-1;-1;-1;Lake Cities
5259;5188;sea;1442;-1;-1;-1;-1;Lake Cities
6503;2252;sea;1595;-1;-1;-1;-1;Laipoint Islets
6511;6512;sea;1668;-1;-1;-1;-1;Jherkhich Islands
1876;2095;canal;1808;-1;-1;-1;-1;Redrushes
1949;1810;canal;1797;-1;-1;-1;-1;Spoorland Gap
1042;1882;canal;6510;-1;-1;-1;-1;Fort Thorn
1901;1835;canal;1783;-1;-1;-1;-1;Ruincliff
1031;2757;canal;1801;-1;-1;-1;-1;Venaine
1128;1153;canal;6502;-1;-1;-1;-1;Arbeloch
2607;2605;sea;1662;-1;-1;-1;-1;Assakadail
2607;2572;sea;1662;-1;-1;-1;-1;Assakadail
6258;6241;canal;1782;-1;-1;-1;-1;deepwoods_fey_portal
6258;3049;canal;4998;-1;-1;-1;-1;deepwoods_fey_portal
6258;3050;canal;4999;-1;-1;-1;-1;deepwoods_fey_portal
6258;3051;canal;4999;-1;-1;-1;-1;deepwoods_fey_portal
6258;3052;canal;4999;-1;-1;-1;-1;deepwoods_fey_portal
6258;3053;canal;4997;-1;-1;-1;-1;deepwoods_fey_portal
6258;3057;canal;4999;-1;-1;-1;-1;deepwoods_fey_portal
6258;3058;canal;4999;-1;-1;-1;-1;deepwoods_fey_portal
6258;3059;canal;4996;-1;-1;-1;-1;deepwoods_fey_portal
6258;3063;canal;2425;-1;-1;-1;-1;deepwoods_fey_portal
6258;3066;canal;4999;-1;-1;-1;-1;deepwoods_fey_portal
6258;7027;canal;4999;-1;-1;-1;-1;deepwoods_fey_portal
6258;7030;canal;4999;-1;-1;-1;-1;deepwoods_fey_portal
6258;7033;canal;4999;-1;-1;-1;-1;deepwoods_fey_portal
6241;6242;canal;6509;-1;-1;-1;-1;domandrod_fey_portal
6241;6245;canal;6506;-1;-1;-1;-1;domandrod_fey_portal
6241;6244;canal;6508;-1;-1;-1;-1;domandrod_fey_portal
6241;6243;canal;6507;-1;-1;-1;-1;domandrod_fey_portal
6241;3053;canal;6505;-1;-1;-1;-1;domandrod_fey_portal
6241;3049;canal;4153;-1;-1;-1;-1;domandrod_fey_portal
6241;3050;canal;1784;-1;-1;-1;-1;domandrod_fey_portal
6241;3059;canal;6124;-1;-1;-1;-1;domandrod_fey_portal
6241;3063;canal;4156;-1;-1;-1;-1;domandrod_fey_portal
6559;2509;sea;1544;-1;-1;-1;-1;Orenkoraim
6559;2510;sea;1544;-1;-1;-1;-1;Orenkoraim
2042;6253;canal;1805;-1;-1;-1;-1;domandrod_summer_gate
2027;6257;canal;6558;-1;-1;-1;-1;domandrod_spring_gate
2003;6250;canal;3281;-1;-1;-1;-1;domandrod_autumn_gate
1994;6247;canal;3288;-1;-1;-1;-1;domandrod_winter_gate
1964;6247;canal;1804;-1;-1;-1;-1;domandrod_winter_gate2
4492;4396;sea;4649;-1;-1;-1;-1;kharunyana_crossing
4600;4499;sea;4648;-1;-1;-1;-1;kharunyana_crossing
4600;4493;sea;4648;-1;-1;-1;-1;kharunyana_crossing
4489;4500;sea;4648;-1;-1;-1;-1;kharunyana_crossing
6136;6149;sea;3128;-1;-1;-1;-1;
6149;6148;sea;3128;-1;-1;-1;-1;
6149;6145;sea;3128;-1;-1;-1;-1;
6148;6145;sea;3128;-1;-1;-1;-1;
4773;6141;sea;3124;-1;-1;-1;-1;
5818;6603;sea;3078;-1;-1;-1;-1;
6609;6612;sea;1461;-1;-1;-1;-1;
5829;6626;sea;1603;-1;-1;-1;-1;
6624;6625;sea;1602;-1;-1;-1;-1;
6633;6631;sea;4346;-1;-1;-1;-1;
5714;5805;sea;3076;-1;-1;-1;-1;
2115;2825;canal;2115;-1;-1;-1;-1;-1;Wormway
2059;2825;canal;1811;-1;-1;-1;-1;-1;Wormway
1821;1138;lake;6550;-1;-1;-1;-1;
1186;1187;lake;6552;-1;-1;-1;-1;
1833;1133;lake;6547;-1;-1;-1;-1;
6068;3232;sea;1329;-1;-1;-1;-1;north_ardimya
6087;6585;sea;1331;-1;-1;-1;-1;jasiir_doog
6032;6060;sea;1456;-1;-1;-1;-1;ashamadiat
6674;6017;sea;1335;3851;477;3848;476;ashamadiat
6674;6018;sea;3135;3837;487;3837;484;ashamadiat
6672;6018;sea;3135;-1;-1;-1;-1;ashamadiat
6672;6019;sea;3134;3796;501;3797;497;ashamadiat
6040;6041;sea;1335;-1;-1;-1;-1;bada_bilad
6051;6052;sea;1448;-1;-1;-1;-1;qasri_baashi
6677;6683;sea;1448;-1;-1;-1;-1;qasri_baashi
5943;6031;sea;1457;-1;-1;-1;-1;nazhni
5833;5834;sea;1459;-1;-1;-1;-1;karassk
5833;5893;sea;1460;-1;-1;-1;-1;karassk
5895;5833;sea;1460;-1;-1;-1;-1;karassk
6762;507;sea;1298;-1;-1;-1;-1;ourdia
6762;513;sea;1298;-1;-1;-1;-1;ourdia
6760;528;sea;6763;-1;-1;-1;-1;bahar
6760;531;sea;6763;-1;-1;-1;-1;bahar
6760;535;sea;6763;-1;-1;-1;-1;bahar
3250;6137;sea;1642;-1;-1;-1;-1;RingletIsles
6151;3249;sea;1644;-1;-1;-1;-1;RingletIsles
6142;3251;sea;3125;-1;-1;-1;-1;RingletIsles
6030;3260;sea;1625;-1;-1;-1;-1;RankatyIsles
3258;3259;sea;3090;-1;-1;-1;-1;RankatyIsles
6032;6033;sea;1456;-1;-1;-1;-1;
3249;6140;sea;1644;-1;-1;-1;-1;
3100;3136;canal;6000;-1;-1;-1;-1;great_merfolk_canal
4533;6821;canal;4533;-1;-1;-1;-1;Rahen>Valley
6821;4533;canal;6821;-1;-1;-1;-1;Valley>Rahen
4285;6830;canal;4285;-1;-1;-1;-1;Dwarovar>Valley
6830;4285;canal;6830;-1;-1;-1;-1;Valley>Dwarovar

-1;-1;;-1;-1;-1;-1;-1;-1;
