KOB_3_commun = {
	slot = 3
	generic = no
	ai = yes
	has_country_shield = yes
	
	potential = {
		tag = Z38
	}
	
	KOB_determine_our_fate = {
		icon = mission_the_triangle_trade
		position = 8
		
		required_missions = {
			KOB_expand_our_religion
		}
		
		trigger = {
			is_at_war = no
		}
		effect = {
			country_event = { id = flavor_kobildzan.1 }
		}
	}
}


KOB_1_artificier = {
	slot = 1
	generic = no
	ai = yes
	has_country_shield = yes
	
	potential = {
		tag = Z38
		has_country_flag = kobold_artificier_path
	}
	
	KOB_better_than_fish = {
		icon = mission_rb_cod_wars
		position = 9
		
		required_missions = {
			KOB_determine_our_fate
		}
		
		provinces_to_highlight = {
			OR = {
				area = dragondowns_area
				area = dragonpoint_area
			}
			OR = {
				NOT = { owned_by = ROOT }
				AND = {
					trade_goods = fish
					OR = {
						has_production_building_trigger = no
						NOT = { base_production = 5 }
					}
				}
			}
		}
		
		trigger = {
			custom_trigger_tooltip = {
				tooltip = tt_better_than_fish
				dragondowns_area = {
					type = all
					owned_by = ROOT
					OR = { 
						NOT = { trade_goods = fish }
						AND = {
							has_production_building_trigger = yes
							base_production = 5
						}
					}
				}
				dragonpoint_area = {
					type = all
					owned_by = ROOT
					OR = { 
						NOT = { trade_goods = fish }
						AND = {
							has_production_building_trigger = yes
							base_production = 5
						}
					}
				}
			}
			estate_loyalty = { estate = estate_artificers loyalty = 40 } 
		}
		
		effect = {
			random_owned_province = {
				limit = {
					OR = {
						area = dragondowns_area
						area = dragonpoint_area
					}
					trade_goods = fish
				}
				change_trade_goods = glass
				add_base_production = 2
			}
			random_owned_province = {
				limit = {
					OR = {
						area = dragondowns_area
						area = dragonpoint_area
					}
					trade_goods = fish
				}
				change_trade_goods = paper
				add_base_production = 2
			}
		}
	}

	KOB_clever_prospecting = {
		icon = mission_african_gold
		position = 10
		
		required_missions = {
			KOB_better_than_fish
		}
		
		provinces_to_highlight = {
			province_id = 179
			OR = {
				NOT = { owned_by = ROOT }
				NOT = { development = 15 }
			}
		}
		
		trigger = {
			179 = {
				owned_by = ROOT
				development = 15
			}
			production_efficiency = 0.25

		}
		
		effect = {
			179 = { change_trade_goods = gold }
		}

	}
	
	KOB_more_than_wool = {
		icon = mission_rb_conquer_wales
		position = 11
		required_missions = {
			KOB_clever_prospecting
		}
		
		provinces_to_highlight = {
			OR = {
				area = dragondowns_area
				area = dragonpoint_area
				area = gnomish_pass_area
			}
			trade_goods = wool
			OR = {
				has_manufactory_trigger = no
				NOT = { development = 12 }
			}
		}
		
		trigger = {
			custom_trigger_tooltip = {
				tooltip = tt_more_than_wool
				calc_true_if = {
					amount = 3
					all_owned_province = {
						OR = {
							area = dragondowns_area
							area = dragonpoint_area
							area = gnomish_pass_area
						}
						trade_goods = wool
						has_manufactory_trigger = yes
						development = 12
					}
				}
			}
		}
		
		effect = {
			random_owned_province = {
				limit = {
					OR = {
						area = dragondowns_area
						area = dragonpoint_area
						area = gnomish_pass_area
					}
					trade_goods = wool
					has_manufactory_trigger = yes
					development = 12
				}
				change_trade_goods = cloth
				add_base_production = 2
			}
			random_owned_province = {
				limit = {
					OR = {
						area = dragondowns_area
						area = dragonpoint_area
						area = gnomish_pass_area
					}
					trade_goods = wool
					has_manufactory_trigger = yes
					development = 12
				}
				change_trade_goods = cloth
				add_base_production = 2
			}
			random_owned_province = {
				limit = {
					OR = {
						area = dragondowns_area
						area = dragonpoint_area
						area = gnomish_pass_area
					}
					trade_goods = wool
					has_manufactory_trigger = yes
					development = 12
				}
				change_trade_goods = cloth
				add_base_production = 2
			}
		}
	}
	
	
}

KOB_2_artificier = {
	slot = 2
	generic = no
	ai = yes
	has_country_shield = yes
	
	potential = {
		tag = Z38
		has_country_flag = kobold_artificier_path
	}
	
	KOB_protect_our_horde = {
		icon = mission_unite_the_princes
		position = 10
		
		required_missions = {
			KOB_expand_the_mountain_copper_mine
		}
		
		provinces_to_highlight = {
			province_id = 187
			OR = {
				NOT = { fort_level = 2 }
				NOT = { owned_by = ROOT }
			}
		}
		
		trigger = {
			187 = {
				owned_by = ROOT
				fort_level = 2
			}
		}
		
		effect = {
			187 = {
				add_permanent_province_modifier = {
					name = kobold_gate
					duration = -1
				}
			}
		}
	}
	
	KOB_house_the_trapsmiths = {
		icon = mission_valencian_silk
		position = 11
		
		required_missions = {
			KOB_protect_our_horde
		}
		
		provinces_to_highlight = {
			province_id = 189
			OR = {
				NOT = { base_production = 10 }
				NOT = { owned_by = ROOT }
				has_production_building_trigger = no
			}
		}
		
		trigger = {
			189 = {
				base_production = 10
				has_production_building_trigger = yes
				owned_by = ROOT
			}
		}
		
		effect = {
			add_country_modifier = {
				name = kobold_construction
				duration = 9125
			}
		}
	}
	
	KOB_fortify_the_pass = {
		icon = mission_reconquer_vologda
		position = 12
		
		required_missions = {
			KOB_house_the_trapsmiths
		}
		
		provinces_to_highlight = {
			area = gnomish_pass_area
		}
		
		trigger = {
			gnomish_pass_area = {
				owned_by = ROOT
				fort_level = 4
			}
		}
		
		effect = {
			random_owned_province = {
				limit = { fort_level = 2 area = gnomish_pass_area }
				add_base_manpower = 2
				add_province_modifier = {
					name = kobold_fortification
					duration = -1
				}
			}
		}
	}
	
	KOB_explore_magical_techonology = {
		icon = mission_artificier_experience
		position = 13
		
		required_missions = {
			KOB_fortify_the_pass
		}
		
		provinces_to_highlight = {
			is_capital_of = ROOT
			NOT = { has_building = university }
		}
		
		trigger = {
			capital_scope = { has_building = university }
		}
		effect = {
			add_country_modifier = {
				name = kobold_research
				duration = 9125
			}
			mission_reward_artifice_points_3 = yes
		}
	}
	
	KOB_technological_breakthrought = {
		icon = mission_diplomacy_missive
		position = 14
		
		required_missions = {
			KOB_explore_magical_techonology
		}
		
		trigger = {
			innovativeness = 10
		}
		
		effect = {
			add_country_modifier = {
				name = kobold_breakthrough
				duration = 9125
			}
			mission_reward_artifice_points_5 = yes
		}
	}
}


KOB_3_artificier = {
	slot = 3
	generic = no
	ai = yes
	has_country_shield = yes
	
	potential = {
		tag = Z38
		has_country_flag = kobold_artificier_path
	}
	
	KOB_expand_the_mountain_copper_mine = {
		icon = mission_burning_separation
		position = 8
		
		required_missions = {
			KOB_determine_our_fate
		}
		
		provinces_to_highlight = {
			OR = {
				province_id = 185
				province_id = 187
				province_id = 189
			}
			NOT = { base_production = 5 }
		}
		
		trigger = {
			185 = { base_production = 5 }
			187 = { base_production = 5 }
			189 = { base_production = 5 }
		}
		
		effect = {
			add_country_modifier = {
				name = kobold_copper_forged_army
				duration = 18250
			}
		}
	}
	
	KOB_construct_more_housing = {
		icon = mission_advance_to_kalyana
		position = 9
		
		required_missions = {
			KOB_expand_the_mountain_copper_mine
		}
		
		trigger = {
			adm_power = 300
		}
		
		effect = {
			every_owned_province = {
				limit = { 
					has_terrain = cavern
					continent = europe
				}
				add_province_modifier = {
					name = kobold_cavern_expert
					duration = -1
				}
			}
			add_adm_power = -300
		}
	}
	
	KOB_dig_deeper = {
		icon = mission_city_of_gondwana
		position = 10
		
		required_missions = {
			KOB_construct_more_housing
		}
		
		provinces_to_highlight = {
			province_id = 189
			OR = {
				NOT = { is_capital_of = ROOT }
				NOT = { development = 30 }
			}
		}
		
		trigger = {
			189 = {
				is_capital_of = ROOT
				development = 30
			}
		}
		
		effect = {
			capital_scope = {
				add_province_modifier = {
					name = kobold_greatest_cavern
					duration = -1
				}
				change_province_name = "Kobildzan Undercity"
			}
			decrease_monstrous_5 = yes
		}
	}
	
	KOB_mass_extraction = {
		icon = mission_conquer_50_development
		position = 11
		
		required_missions = {
			KOB_dig_deeper
		}
		
		provinces_to_highlight = {
			OR = {
				area = dragondepth_area
				area = dragonheart_area
				area = dragonmaw_area
			}
			has_manufactory_trigger = no
		}
		
		trigger = {
			calc_true_if = {
				dragon_coast_region = {
					type = all
					OR = {
						area = dragondepth_area
						area = dragonheart_area
						area = dragonmaw_area
					}
					has_manufactory_trigger = yes
				}
				amount = 5
			}
		}
		
		effect = {
			dragondepth_area = {
				limit = { owned_by = ROOT }
				add_province_modifier = {
					name = kobold_mass_extraction
					duration = 18250
				}
			}
			dragonheart_area = {
				limit = { owned_by = ROOT }
				add_province_modifier = {
					name = kobold_mass_extraction
					duration = 18250
				}
			}
			dragonmaw_area = {
				limit = { owned_by = ROOT }
				add_province_modifier = {
					name = kobold_mass_extraction
					duration = 18250
				}
			}
		}
	}
	
	KOB_kobildzan_prosperity = {
		icon = mission_convert_bengal
		position = 12
		
		required_missions = {
			KOB_mass_extraction
		}
		
		trigger = {
			total_development = 500
		}
		
		effect = {
			add_country_modifier = {
				name = kobold_prosperity
				duration = 18250
			}
			decrease_monstrous_5 = yes
		}
	}
	
	KOB_find_trading_partner = {
		icon = mission_dancing_with_dead
		position = 13
		
		required_missions = {
			KOB_sell_our_metals
		}
		
		trigger = {
			calc_true_if = {
				all_country = {
					alliance_with = ROOT
					has_opinion = {
						who = ROOT
						value = 150
					}
				}
				amount = 3
			}
		}
		
		effect = {
			add_country_modifier = {
				name = kobold_trading_partner
				duration = 18250
			}
			decrease_monstrous_10 = yes
		}
	}
}

KOB_4_artificier = {
	slot = 4
	generic = no
	ai = yes
	has_country_shield = yes
	
	potential = {
		tag = Z38
		has_country_flag = kobold_artificier_path
	}
	
	KOB_strenghten_our_fleet = {
		icon = mission_dominate_gujarati_trade
		position = 9
		
		required_missions = {
			KOB_determine_our_fate
		}
		
		trigger = {
			sailors_percentage = 0.9
		}
		
		effect = {
			add_country_modifier = {
				name = kobold_building_ship
				duration = 9125
			}
		}
	}
	
	KOB_rule_the_ocean = {
		icon = mission_look_west
		position = 10
		
		required_missions = {
			KOB_strenghten_our_fleet
		}
		
		trigger = {
			navy_size = 30
		}
		
		effect = {
			add_country_modifier = {
				name = kobold_navy
				duration = 18250
			}
		}
	}
	
	KOB_create_markets_at_home = {
		icon = mission_market
		position = 11
		
		required_missions = {
			KOB_rule_the_ocean
		}
		
		provinces_to_highlight = {
			province_id = 1294
			NOT = { 1294 = { is_strongest_trade_power = ROOT } }
		}
		
		trigger = {
			1294 = { is_strongest_trade_power = ROOT }
		}
		
		effect = {
			189 = { 
				center_of_trade = 2
				add_base_tax = 2
				add_base_production = 1
			}
		}
	}
	
	KOB_ensure_naval_supply = {
		icon = mission_naval_dominance
		position = 12
		
		required_missions = {
			KOB_create_markets_at_home
		}
		
		trigger = {
			naval_supplies = 5
		}
		
		effect = {
			add_country_modifier = {
				name = kobold_good_ship_supply
				duration = 18250
			}
		}
	}
	
	KOB_sell_our_metals = {
		icon = mission_jawal_silver_mine
		position = 13
		
		required_missions = {
			KOB_ensure_naval_supply
		}
		
		trigger = {
			calc_true_if = {
				all_owned_province = {
					OR = {
						trade_goods = iron
						trade_goods = copper
					}
				}
				amount = 7
			}
		}
		
		effect = {
			add_country_modifier = {
				name = kobold_exporting_metal
				duration = 18250
			}
		}
	}
	
	KOB_establish_ourselves = {
		icon = mission_iberian_conquistador
		position = 14
		
		required_missions = {
			KOB_sell_our_metals
		}
		
		provinces_to_highlight = {
			OR = {
				province_id = 1324
				province_id = 1289
				province_id = 1477
			}
			NOT = { 1324 = { is_strongest_trade_power = ROOT } }
			NOT = { 1289 = { is_strongest_trade_power = ROOT } }
			NOT = { 1477 = { is_strongest_trade_power = ROOT } }
		}
		
		trigger = {
			OR = {
				1324 = { is_strongest_trade_power = ROOT }
				1289 = { is_strongest_trade_power = ROOT }
				1477 = { is_strongest_trade_power = ROOT }
			}
		}
		
		effect = {
			add_country_modifier = {
				name = kobold_establishing_ourselves
				duration = 18250
			}
		}
	}
	
	KOB_kobold_hegemony = {
		icon = mission_heated_battle
		position = 15
		
		required_missions = {
			KOB_establish_ourselves
			KOB_find_trading_partner
			KOB_further_west
		}
		
		trigger = {
			total_development = 1000
			stability = 3
			is_at_war = no
		}
		
		effect = {
			add_country_modifier = {
				name = kobold_hegemony
				duration = -1
			}
		}
	}
}

KOB_5_artificier = {
	slot = 5
	generic = no
	ai = yes
	has_country_shield = yes
	
	potential = {
		tag = Z38
		has_country_flag = kobold_artificier_path
	}
	
	KOB_find_a_new_home = {
		icon = mission_hills_of_gondwana
		position = 11
		
		required_missions = {
			KOB_rule_the_ocean
		}
		
		trigger = {
			has_idea_group = exploration_ideas
			exploration_ideas = 1
		}
		
		effect = {
			define_explorer = {
				shock = 1
				fire = 4
				manuever = 3
				siege = 2
				name = "Shuruzmei"
			}
		}
	}
	
	KOB_the_first_mountain = {
		icon = mission_extent_yasak_to_the_east
		position = 12
		
		required_missions = {
			KOB_find_a_new_home
		}
		
		provinces_to_highlight = {
			area = flottnord_area
			NOT = { country_or_subject_holds = ROOT }
		}
		
		trigger = {
			flottnord_area = {
				country_or_subject_holds = ROOT
			}
		}
		
		effect = {
			add_country_modifier = {
				name = kobold_the_first_mountain
				duration = 9125
			}
		}
	}
	
	KOB_a_second_home = {
		icon = mission_el_badi_palace
		position = 13
		
		required_missions = {
			KOB_the_first_mountain
		}
		
		provinces_to_highlight = {
			region = dalaire_region
			NOT = { country_or_subject_holds = ROOT }
		}
		
		trigger = {
			calc_true_if = {
				dalaire_region = {
					type = all
					country_or_subject_holds = ROOT
				}
				amount = 5
			}
		}
		
		effect = {
			add_country_modifier = {
				name = kobold_a_second_home
				duration = 9125
			}
		}
	}
	
	KOB_further_west = {
		icon = mission_dominate_trade_in_aden
		position = 14
		
		required_missions = {
			KOB_a_second_home
		}
		
		provinces_to_highlight = {
			region = broken_isles_region
			NOT = { country_or_subject_holds = ROOT }
		}
		
		trigger = {
			calc_true_if = {
				broken_isles_region = {
					type = all
					country_or_subject_holds = ROOT
				}
				amount = 5
			}
		}
		
		effect = {
			add_country_modifier = {
				name = kobold_manifest_destiny
				duration = 9125
			}
		}
	}
}

KOB_1_dragon = {
	slot = 1
	generic = no
	ai = yes
	has_country_shield = yes
	
	potential = {
		tag = Z38
		has_country_flag = kobold_dragon_path
	}
	
	KOB_spread_our_worship = {
		icon = mission_din_i_llahi
		position = 10
		
		required_missions = {
		}
		
		provinces_to_highlight = {
			owned_by = ROOT
			NOT = { religion = kobold_dragon_cult }
		}
		
		trigger = {
			num_of_owned_provinces_with = {
				value = 50
				religion = kobold_dragon_cult
			}
		}
		
		effect = {
			add_country_modifier = {
				name = kobold_spread_our_worship
				duration = 9125
			}
		}
	}
	
	KOB_enforce_our_religion = {
		icon = mission_construct_a_corsair_fleet
		position = 11
		
		required_missions = {
			KOB_spread_our_worship
		}
		
		provinces_to_highlight = {
			owned_by = ROOT
			NOT = { religion = kobold_dragon_cult }
		}
		
		trigger = {
			num_of_owned_provinces_with = {
				value = 100
				religion = kobold_dragon_cult
			}
		}
		
		effect = {
			add_country_modifier = {
				name = kobold_enforce_our_religion
				duration = 9125
			}
		}
	}
	
	KOB_build_the_dragon_temple = {
		icon = mission_conquer_sindh_dlh
		position = 12
		
		required_missions = {
			KOB_enforce_our_religion
		}
		
		provinces_to_highlight = {
			province_id = 185
			NOT = { owned_by = ROOT }
		}
		
		trigger = {
			owns = 185
			adm_power = 200
			treasury = 2000
		}
		
		effect = {
			185 = {
				add_base_tax = 3
				add_permanent_province_modifier = {
					name = kobold_dragon_temple
					duration = -1
				}
			}
			add_adm_power = -200
			add_treasury = -2000
		}
	}
	
	KOB_crown_the_dragon_spawn = {
		icon = mission_claim_hispaniola
		position = 13
		
		required_missions = {
			KOB_build_the_dragon_temple
		}
		
		provinces_to_highlight = {
			owned_by = ROOT
			NOT = { religion = kobold_dragon_cult }
		}
		
		trigger = {
			num_of_owned_provinces_with = {
				value = 150
				religion = kobold_dragon_cult
			}
			185 = {
				owned_by = ROOT
				has_province_modifier = kobold_dragon_temple
			}
		}
		
		effect = {
			country_event = { id = flavor_kobildzan.2 }
		}
	}
}

KOB_2_dragon = {
	slot = 2
	generic = no
	ai = yes
	has_country_shield = yes
	
	potential = {
		tag = Z38
		has_country_flag = kobold_dragon_path
	}
	
	KOB_punish_the_humans = {
		icon = mission_confrontation
		position = 10
		
		required_missions = {
			KOB_solidify_our_dragon_worship
		}
		
		provinces_to_highlight = {
			OR = {
				area = westmounts_area
				area = moorhills_area
				area = beronmoor_area
				area = south_alen_area
			}
			NOT = { owned_by = ROOT }
		}
		
		trigger = {
			westmounts_area = {
				type = all
				owned_by = ROOT
			}
			moorhills_area = {
				type = all
				owned_by = ROOT
			}
			beronmoor_area = {
				type = all
				owned_by = ROOT
			}
			south_alen_area = {
				type = all
				owned_by = ROOT
			}
		}
		
		effect = {
			gawed_area = {
				limit = {
					NOT = { is_core = ROOT }
					NOT = { is_claim = ROOT }
					NOT = { is_permanent_claim = ROOT }
				}
				add_claim = ROOT
			}
		}
	}
	
	KOB_devastate_gawed = {
		icon = mission_ghost_town
		position = 11
		
		required_missions = {
			KOB_punish_the_humans
		}
		
		provinces_to_highlight = {
			province_id = 221
		}
		
		trigger = { #Fuck gamers
			OR = {
				AND = {
					owns = 221
					mil_power = 250
					A13 = { exists = no }
				}
				221 = {
					controlled_by = ROOT
					OR = {
						devastation = 50
						AND = {
							has_province_modifier = scorched_earth
							devastation = 25
						}
					}
					owner = { war_with = ROOT }
				}
			}
		}
		
		effect = {
			if = {
				limit = { owns = 221 }
				add_mil_power = -250
				221 = { add_devastation = 50 }
			}
			add_prestige = 10
			alenic_frontier_region = {
				limit = {
					NOT = { is_core = ROOT }
					NOT = { is_claim = ROOT }
					NOT = { is_permanent_claim = ROOT }
				}
				add_permanent_claim = ROOT
			}
		}
	}
	
	KOB_continue_the_dragonwake = {
		icon = mission_guarded_market
		position = 12
		
		required_missions = {
			KOB_devastate_gawed
		}
		
		provinces_to_highlight = {
			region = alenic_frontier_region
			NOT = { owned_by = ROOT }
		}
		
		trigger = {
			alenic_frontier_region = {
				type = all
				owned_by = ROOT
			}
		}
		
		effect = {
			damescrown_region = {
				limit = {
					NOT = { is_core = ROOT }
					NOT = { is_claim = ROOT }
					NOT = { is_permanent_claim = ROOT }
				}
				add_claim = ROOT
			}
			add_mil_power = 150
		}
	}
	
	KOB_at_the_edge_of_the_empire = {
		icon = mission_golden_century
		position = 13
		
		required_missions = {
			KOB_continue_the_dragonwake
		}
		
		provinces_to_highlight = {
			region = damescrown_region
			NOT = { owned_by = ROOT }
		}
		
		trigger = {
			damescrown_region = {
				type = all
				owned_by = ROOT
			}
		}
		
		effect = {
			add_country_modifier = {
				name = kobold_conqueror
				duration = 18250
			}
		}
	}
}

KOB_3_dragon = {
	slot = 3
	generic = no
	ai = yes
	has_country_shield = yes
	
	potential = {
		tag = Z38
		has_country_flag = kobold_dragon_path
	}
	
	KOB_solidify_our_dragon_worship = {
		icon = mission_door_trade
		position = 9
		
		required_missions = {
			KOB_determine_our_fate
		}
		
		provinces_to_highlight = {
			owned_by = ROOT
			has_tax_building_trigger = no
		}
		
		trigger = {
			num_of_owned_provinces_with = {
				value = 10
				has_tax_building_trigger = yes
			}
		}
		
		effect = {
			westmounts_area = {
				limit = {
					NOT = { is_core = ROOT }
					NOT = { is_claim = ROOT }
					NOT = { is_permanent_claim = ROOT }
				}
				add_claim = ROOT
			}
			moorhills_area = {
				limit = {
					NOT = { is_core = ROOT }
					NOT = { is_claim = ROOT }
					NOT = { is_permanent_claim = ROOT }
				}
				add_claim = ROOT
			}
			beronmoor_area = {
				limit = {
					NOT = { is_core = ROOT }
					NOT = { is_claim = ROOT }
					NOT = { is_permanent_claim = ROOT }
				}
				add_claim = ROOT
			}
			south_alen_area = {
				limit = {
					NOT = { is_core = ROOT }
					NOT = { is_claim = ROOT }
					NOT = { is_permanent_claim = ROOT }
				}
				add_claim = ROOT
			}
			small_country_region = {
				limit = {
					NOT = { is_core = ROOT }
					NOT = { is_claim = ROOT }
					NOT = { is_permanent_claim = ROOT }
				}
				add_claim = ROOT
			}
			add_country_modifier = {
				name = kobold_faith
				duration = 18250
			}
		}
	}
	
	KOB_conquer_the_halflings = {
		icon = mission_conquer_benin
		position = 10
		
		required_missions = {
			KOB_solidify_our_dragon_worship
		}
		
		provinces_to_highlight = {
			region = small_country_region
			NOT = { owned_by = ROOT }
		}
		
		trigger = {
			small_country_region = {
				type = all
				owned_by = ROOT
			}
		}
		
		effect = {
			deranne_area = {
				limit = {
					NOT = { is_core = ROOT }
					NOT = { is_claim = ROOT }
					NOT = { is_permanent_claim = ROOT }
				}
				add_claim = ROOT
			}
			southroy_area = {
				limit = {
					NOT = { is_core = ROOT }
					NOT = { is_claim = ROOT }
					NOT = { is_permanent_claim = ROOT }
				}
				add_claim = ROOT
			}
			northern_flats_area = {
				limit = {
					NOT = { is_core = ROOT }
					NOT = { is_claim = ROOT }
					NOT = { is_permanent_claim = ROOT }
				}
				add_claim = ROOT
			}
			ionnidar_area = {
				limit = {
					NOT = { is_core = ROOT }
					NOT = { is_claim = ROOT }
					NOT = { is_permanent_claim = ROOT }
				}
				add_claim = ROOT
			}
			redglades_area = {
				limit = {
					NOT = { is_core = ROOT }
					NOT = { is_claim = ROOT }
					NOT = { is_permanent_claim = ROOT }
				}
				add_claim = ROOT
			}
		}
	}
	
	KOB_push_south = {
		icon = mission_assassination
		position = 11
		
		required_missions = {
			KOB_conquer_the_halflings
		}
		
		provinces_to_highlight = {
			OR = {
				area = deranne_area
				area = southroy_area
				area = northern_flats_area
				area = ionnidar_area
				area = redglades_area
			}
			NOT = { owned_by = ROOT }
		}
		
		trigger = {
			deranne_area = {
				type = all
				owned_by = ROOT
			}
			southroy_area = {
				type = all
				owned_by = ROOT
			}
			northern_flats_area = {
				type = all
				owned_by = ROOT
			}
			ionnidar_area = {
				type = all
				owned_by = ROOT
			}
			redglades_area = {
				type = all
				owned_by = ROOT
			}
		}
		
		effect = {
			lencenor_region = {
				limit = {
					NOT = { is_core = ROOT }
					NOT = { is_claim = ROOT }
					NOT = { is_permanent_claim = ROOT }
				}
				add_claim = ROOT
			}
		}
	}
	
	KOB_subjugate_the_humans = {
		icon = mission_african_trade_post
		position = 12
		
		required_missions = {
			KOB_push_south
		}
		
		provinces_to_highlight = {
			region = lencenor_region
			NOT = { owned_by = ROOT }
		}
		
		trigger = {
			lencenor_region = {
				type = all
				owned_by = ROOT
			}
		}
		
		effect = {
			add_country_modifier = {
				name = kobold_subjugation
				duration = -1
			}
		}
	}
	
	KOB_extinguish_hope = {
		icon = mission_murder
		position = 14
		
		required_missions = {
			KOB_subjugate_the_humans
			KOB_at_the_edge_of_the_empire
			KOB_push_into_anbennar
		}
		
		provinces_to_highlight = {
			OR = {
				owner = { is_emperor = yes }
				owner = { is_elector = yes }
			}
			is_capital = yes
			NOT = { controlled_by = ROOT }
		}
		
		trigger = {
			eoa_is_dismantled = yes
		}
		
		effect = {
			add_country_modifier = {
				name = kobold_fire
				duration = -1
			}
		}
	}
}

KOB_4_dragon = {
	slot = 4
	generic = no
	ai = yes
	has_country_shield = yes
	
	potential = {
		tag = Z38
		has_country_flag = kobold_dragon_path
	}
	
	KOB_show_our_might = {
		icon = mission_mayan_conquest
		position = 10
		
		required_missions = {
			KOB_solidify_our_dragon_worship
		}
		
		trigger = {
			is_great_power = yes
		}
		
		effect = {
			add_prestige = 20
			add_country_modifier = {
				name = kobold_great_power
				duration = 18250
			}
		}
	}
	
	KOB_invade_the_dwarven_mountain = {
		icon = mission_portuguese_oman
		position = 12
		
		required_missions = {
			KOB_push_south
		}
		
		provinces_to_highlight = {
			area = west_ruby_mountains_area
			area = east_ruby_mountains_area
			NOT = { owned_by = ROOT }
		}
		
		trigger = {
			west_ruby_mountains_area = {
				type = all
				owned_by = ROOT
			}
			east_ruby_mountains_area = {
				type = all
				owned_by = ROOT
			}
		}
		
		effect = {
			west_ruby_mountains_area = {
				change_religion = kobold_dragon_cult
			}
			east_ruby_mountains_area = {
				change_religion = kobold_dragon_cult
			}
			west_dameshead_region = {
				limit = {
					NOT = { is_core = ROOT }
					NOT = { is_claim = ROOT }
					NOT = { is_permanent_claim = ROOT }
				}
				add_claim = ROOT
			}
		}
	}
	
	KOB_push_into_anbennar = {
		icon = mission_protect_albania

		position = 13
		
		required_missions = {
			KOB_invade_the_dwarven_mountain
		}
		
		provinces_to_highlight = {
			region = west_dameshead_region
			NOT = { owned_by = ROOT }
		}
		
		trigger = {
			west_dameshead_region = {
				type = all
				owned_by = ROOT
			}
		}
		
		effect = {
			add_mil_power = 350
		}
	}
}

KOB_5_dragon = {
	slot = 5
	generic = no
	ai = yes
	has_country_shield = yes
	
	potential = {
		tag = Z38
		has_country_flag = kobold_dragon_path
	}
	
	KOB_strenght_in_the_face_of_our_ennemies = {
		icon = mission_rb_control_electors
		position = 11
		
		required_missions = {
			KOB_show_our_might
		}
		
		trigger = {
			any_known_country = {
				coalition_target = ROOT
			}
		}
		
		effect = {
			add_country_modifier = {
				name = kobold_show_our_might
				duration = 9125
			}
		}
	}
	
	KOB_march_against_our_enemies = {
		icon = mission_jungle_pilgrim
		position = 13
		
		required_missions = {
			KOB_strenght_in_the_face_of_our_ennemies
		}
		
		trigger = {
			is_in_war = {
				defender_leader = ROOT
				casus_belli = cb_super_badboy
			}
		}
		
		effect = {
			add_country_modifier = {
				name = kobold_march_against_our_enemies
				duration = 9125
			}
		}
	}
}

